<svg id="レイヤー_1" data-name="レイヤー 1" xmlns="http://www.w3.org/2000/svg" width="168" height="168" viewBox="0 0 168 168">
  <title>page-top</title>
  <circle cx="84" cy="84" r="84" fill="#029091"/>
  <path d="M112,102.5a4.48,4.48,0,0,1-3.18-1.32L84,76.36,59.18,101.18a4.5,4.5,0,0,1-6.36-6.36l28-28a4.49,4.49,0,0,1,6.36,0l28,28A4.5,4.5,0,0,1,112,102.5Z" fill="#fff"/>
</svg>
