<?xml version="1.0" encoding="utf-8"?>
<!-- Generator: Adobe Illustrator 23.0.3, SVG Export Plug-In . SVG Version: 6.00 Build 0)  -->
<svg version="1.1" id="レイヤー_1" xmlns="http://www.w3.org/2000/svg" xmlns:xlink="http://www.w3.org/1999/xlink" x="0px"
	 y="0px" viewBox="0 0 180 180" style="enable-background:new 0 0 180 180;" xml:space="preserve">
<style type="text/css">
	.st0{fill:#FFFFFF;stroke:#147C3B;stroke-width:5;stroke-miterlimit:10;}
	.st1{fill:#147C3B;}
	.st2{fill:none;stroke:#147C3B;stroke-width:4;stroke-miterlimit:10;}
</style>
<title>point03</title>
<path class="st0" d="M164.1,177H15.9C8.8,177,3,171.2,3,164.1V15.9C3,8.8,8.8,3,15.9,3h148.1c7.1,0,12.9,5.8,12.9,12.9v148.1
	C177,171.2,171.2,177,164.1,177z"/>
<g>
	<path class="st1" d="M71.6,65.3c4.1,4.1,9.6,7.8,15.3,9.9c-2.2,2-5.3,5.7-6.8,8.3C72,79.6,64.9,73,59.8,65.3H46.7
		c-1.1,1.7-2.4,3.3-3.6,4.8c4.5-0.9,9-2.1,11.7-3.4l8.3,4.6c-6.2,3.4-15.1,6-22,7.3c-0.7-1-1.6-2.2-2.7-3.5
		c-3.6,3.3-7.5,6.1-11.8,8.3c-1.5-2.1-5.4-6.2-7.6-8.1c5.7-2.4,10.6-5.7,14.7-9.9H21v-8.9h19c0.6-1.1,1.1-2.2,1.5-3.3
		c-7.6,0.4-10,0.7-12,1.3c-0.5-1.9-1.9-6.5-2.9-9.1c1.8-0.3,3.4-1.1,5.6-2.3c2.3-1.2,9.2-5.3,14.1-10.1l9.1,5
		c-2.9,2.3-6.2,4.6-9.5,6.6l15.3-0.2c-1.7-1.3-3.4-2.5-4.9-3.6l8.1-5c6,4,14.1,10,18.1,14.4l-8.7,5.7c-0.9-1.1-2.1-2.3-3.5-3.6
		l-17.2,0.6c-0.5,1.3-1,2.5-1.5,3.7h33.7v8.9H71.6z M77.4,85.6c-10.2,9.5-26,13.2-44.5,15.2c-0.9-2.8-2.9-6.6-4.8-9
		c16.3-1,32-3.7,39.7-10.6L77.4,85.6z M68.4,78.7c-7.5,5.5-18.8,8.8-29.5,10.6c-1.2-2.4-3.4-5.6-5.5-7.8c9.5-1,20.9-3.5,26.6-7.1
		L68.4,78.7z"/>
	<path class="st1" d="M102.5,62.3c-0.1,3.3-1.1,10.1-5.5,13.7c-1.7-1.3-5.5-3.3-7.6-4.2c3.2-2.6,4-7,4.2-9.5h-3.4v-7.8h14.8v-2.9
		H92.8V36h8.4v8h3.9v-9.7h9.2v40.3h-9.2V62.3H102.5z M133.4,86.9c5,3.2,12.6,4.3,23.9,4.4c-2.1,2.2-4.6,6.4-5.7,9.2
		c-14.6-0.8-22.9-3.7-28.6-10.4c-4.5,4.7-12.8,8.9-27.7,11.1c-1.2-2.3-3.7-6-5.7-8.2c10.6-1.5,17.3-3.7,21.6-6.2H90v-8.3h27.8
		c0.1-0.5,0.1-1,0.1-1.4v-4.9h10.1v5.3c0,0.4,0,0.7,0,1.1h11c-1.3-1.1-2.7-2.1-3.9-3l2.7-2.5c-0.8,0-1.8,0-2.7,0
		c-0.3-2.3-1.5-5.2-2.5-7.3c1.8,0.1,4.2,0.1,4.9,0.1c0.7-0.1,1-0.2,1-0.9v-2.5h-9.2c1.3,1.1,2.5,2.2,3.3,3.2l-6.6,5
		c-1.2-1.8-4.1-4.4-6.4-6.1l2.8-2.1H116v-6.9h3.5c-0.8-1.8-2.2-3.9-3.3-5.1c2.5-0.2,4.8-0.5,7.1-0.8c-0.8-0.6-1.5-1.3-2.2-1.8
		l5.3-1.9c1,0.6,2.1,1.5,3.2,2.4c0.9-0.3,1.8-0.5,2.7-0.8c-1.2-0.8-2.5-1.5-3.6-2.2l4.6-2.3c1.4,0.6,2.9,1.5,4.3,2.5
		c1.6-0.8,3.1-1.7,4.3-2.7h-10.7c-3.1,1.5-6.5,2.8-10.4,4c-1.1-1.8-3.3-4.4-5-5.6c8.5-1.8,14.7-4.6,18.3-7.6l8.1,1.8
		c-0.8,0.8-1.6,1.5-2.5,2.2h7.8l1.5-0.3l5.3,2.5c-3.2,5.7-8.3,9.6-14.7,12.2h8.5v3.6h7.4v6.9H148v2.9c0,3.8-0.7,5.5-3.3,6.7
		c-0.9,0.4-1.8,0.6-2.9,0.8c2,1.4,4,2.9,5.2,4.1l-1.7,1.7h10.9v8.3H133.4z M138.4,55.6v-3.1c-3.5,1.4-7.4,2.4-11.6,3.1H138.4z"/>
</g>
<g>
	<path class="st1" d="M37,142.1h4.4v-11.8h-3.8v-3.1c2.2-0.4,3.7-1,5.2-1.9h3.7v16.8h3.8v4H37V142.1z"/>
	<path class="st1" d="M53,135.6c0-7.2,3-10.7,7.4-10.7c4.4,0,7.4,3.6,7.4,10.7c0,7.2-3,10.9-7.4,10.9C56,146.5,53,142.8,53,135.6z
		 M63,135.6c0-5.7-1.2-6.9-2.7-6.9c-1.5,0-2.7,1.2-2.7,6.9c0,5.7,1.2,7.1,2.7,7.1C61.8,142.7,63,141.3,63,135.6z"/>
	<path class="st1" d="M70,135.6c0-7.2,3-10.7,7.4-10.7c4.4,0,7.4,3.6,7.4,10.7c0,7.2-3,10.9-7.4,10.9C73,146.5,70,142.8,70,135.6z
		 M80.1,135.6c0-5.7-1.2-6.9-2.7-6.9c-1.5,0-2.7,1.2-2.7,6.9c0,5.7,1.2,7.1,2.7,7.1C78.9,142.7,80.1,141.3,80.1,135.6z"/>
	<path class="st1" d="M87.1,135.6c0-7.2,3-10.7,7.4-10.7c4.4,0,7.4,3.6,7.4,10.7c0,7.2-3,10.9-7.4,10.9
		C90.1,146.5,87.1,142.8,87.1,135.6z M97.1,135.6c0-5.7-1.2-6.9-2.7-6.9c-1.5,0-2.7,1.2-2.7,6.9c0,5.7,1.2,7.1,2.7,7.1
		C95.9,142.7,97.1,141.3,97.1,135.6z"/>
	<path class="st1" d="M105,130.2h4.1l0.3,1.5h0.1c1.3-1.1,2.8-1.9,4.5-1.9c3.8,0,6.2,3.2,6.2,8.1c0,5.5-3.3,8.6-6.7,8.6
		c-1.3,0-2.6-0.6-3.7-1.7l0.1,2.5v4.6h-5V130.2z M115.1,138c0-2.8-0.8-4.1-2.6-4.1c-0.9,0-1.7,0.4-2.5,1.3v6.3
		c0.8,0.7,1.6,0.9,2.4,0.9C113.9,142.5,115.1,141.2,115.1,138z"/>
	<path class="st1" d="M124.1,140.2v-6.1h-2.2v-3.7l2.4-0.2l0.6-4.2h4.1v4.2h3.8v3.9h-3.8v6.1c0,1.8,0.8,2.5,2,2.5
		c0.5,0,1.1-0.2,1.5-0.3l0.8,3.6c-0.8,0.3-2,0.6-3.6,0.6C125.7,146.5,124.1,144,124.1,140.2z"/>
	<path class="st1" d="M134.5,144.3l2.2-3.1c1.5,1.1,2.8,1.7,4,1.7c1.3,0,1.9-0.5,1.9-1.3c0-1-1.5-1.4-3.2-2c-1.9-0.8-4.1-2-4.1-4.7
		c0-3,2.5-5.1,6.2-5.1c2.5,0,4.3,1,5.7,2l-2.2,3c-1.1-0.8-2.2-1.3-3.3-1.3c-1.1,0-1.7,0.4-1.7,1.1c0,1,1.5,1.3,3.1,1.9
		c2,0.8,4.2,1.9,4.2,4.8c0,2.9-2.3,5.2-6.6,5.2C138.6,146.5,136.1,145.7,134.5,144.3z"/>
</g>
<line class="st2" x1="22.7" y1="112" x2="157.3" y2="112"/>
</svg>
