<svg id="roulette01" xmlns="http://www.w3.org/2000/svg" width="560" height="560" viewBox="0 0 560 560">
  <title>roulette01</title>
  <g>
    <circle cx="280" cy="280" r="26.17" fill="#9eb5de"/>
    <circle cx="280" cy="280" r="26.17" fill="#9eb5de"/>
    <circle cx="280" cy="280" r="280" fill="#be966b"/>
    <path d="M280,270.35,184.69,40.26a256.18,256.18,0,0,1,190.62,0L280,270.35" fill="#8b4289"/>
    <path d="M273.18,273.18,43.09,177.87A256.12,256.12,0,0,1,177.87,43.09l95.31,230.09" fill="#fff"/>
    <path d="M270.35,280,40.26,375.31a256.18,256.18,0,0,1,0-190.62L270.35,280" fill="#085f36"/>
    <path d="M273.18,286.82,177.87,516.91A256.12,256.12,0,0,1,43.09,382.13l230.09-95.31" fill="#fff"/>
    <path d="M280,289.65l95.31,230.09a256.18,256.18,0,0,1-190.62,0L280,289.65" fill="#43469d"/>
    <path d="M286.82,286.82l230.09,95.31A256.12,256.12,0,0,1,382.13,516.91L286.82,286.82" fill="#fff"/>
    <path d="M289.65,280l230.09-95.31a256.18,256.18,0,0,1,0,190.62L289.65,280" fill="#c93564"/>
    <path d="M286.82,273.18,382.13,43.09A256.12,256.12,0,0,1,516.91,177.87L286.82,273.18" fill="#fff"/>
    <path d="M472,272.05c-.22-5.1-.22-8.31-.22-8.31H486s0,9.64-.77,18.06c-30.91,3.21-67.13,3.87-67.13,3.87V270.16S446.28,271.61,472,272.05Z" fill="#fff"/>
    <path d="M286.41,402c-7.2-.22-16.83-.67-28.69-1.55V387.94a354.05,354.05,0,0,1,43.09-.22v14.4c-8,12.18-21.93,18.28-21.93,29.47,0,4.09,6.43,11.4,16.95,3.32l5.76,14.4c-21,11.85-40.1,1.22-40.1-15.95C261.49,418.85,275,411.2,286.41,402Z" fill="#fff"/>
    <path d="M121.59,290.52l-7.2-.11c-.23-8.64-4.1-12.51-8-12.18s-7.53,4.87-7.53,13.07l-15.51-.66c1.11-21.05,9-31.91,24.48-29.91,5.09.66,8.53,2.66,10.63,7.2,2.55-5.65,7.87-10.3,15.18-10.3,8.64,0,16.28,10.41,16.28,34.56l-15.51.66C134.43,272.36,121.59,272.47,121.59,290.52Z" fill="#fff"/>
    <g>
      <path d="M426.65,445.13s8.81-8,16.55-15.44c-7.09-6.69-8.55-8.16-8.55-8.16l4.57-4.57s2.54,2.81,10.6,11.78c-8.13,10.09-18.6,20.95-18.6,20.95Z" fill="#e01714"/>
      <path d="M419.6,418.3c-5.45,5.45-13.51,6.26-18,1.82s-3.62-12.49,1.83-17.94,13.48-6.3,17.94-1.83S425.05,412.85,419.6,418.3Zm-4.51-3c3.37-3.37,4.15-8,1.74-10.41s-7.05-1.64-10.42,1.73-4.07,8-1.69,10.37S411.77,418.62,415.09,415.3Z" fill="#e01714"/>
      <path d="M384.91,376c3-3,7.83-4.37,13.41,1.21a18.11,18.11,0,0,1,4.63,7.18l-5.58,2.9a19,19,0,0,0-3.62-5.51c-4.41-4.41-8.06.62-5.35,3.33,3.52,3.52,3.68,7.8.78,10.7-3.26,3.27-8,3.85-12-.16a15.09,15.09,0,0,1-3.95-6l4.66-2.45a11.43,11.43,0,0,0,3,4.67c3.33,3.32,7-.56,4.11-3.4C380.5,384,382.1,378.84,384.91,376Z" fill="#e01714"/>
      <path d="M361.18,371.23c1.44,1.57,3.07,3.33,4.89,5.35l-3.65,3.66c-12.56-11.91-15-14.33-15-14.33l4.57-4.56s1.34,1.4,5,5.35l15.89-14.91,2.81,2.8C370.28,361.28,364.44,367.71,361.18,371.23Z" fill="#e01714"/>
    </g>
    <path d="M294.38,127.5c2.21.11,4.54.34,7,.45v12.51a61.57,61.57,0,0,1-6.42.34c.33,8.86.44,14.51.44,14.51H279.86l.56-14.07c-13.52.11-22.16-.55-22.16-.55s.56-24,3.55-49.85h8.64c0,12.74.44,25.92.88,35.56,2.77,0,6,.11,9.75.33.33-12.19.78-26.36.78-38.55h9.52C292.82,101.36,293.71,115.54,294.38,127.5Z" fill="#fff"/>
    <g>
      <path d="M127.22,110.46s-8.81,8-16.54,15.44c7.08,6.69,8.55,8.16,8.55,8.16l-4.57,4.56s-2.55-2.8-10.61-11.77c8.13-10.09,18.6-20.95,18.6-20.95Z" fill="#e01714"/>
      <path d="M134.27,137.29c5.45-5.45,13.51-6.26,17.95-1.82s3.62,12.49-1.83,17.94-13.47,6.3-17.94,1.83S128.83,142.74,134.27,137.29Zm4.51,3c-3.36,3.37-4.15,8-1.73,10.41s7,1.64,10.41-1.73,4.08-8,1.69-10.37S142.11,137,138.78,140.29Z" fill="#e01714"/>
      <path d="M169,179.56c-3,3-7.82,4.37-13.4-1.21a18.07,18.07,0,0,1-4.64-7.18l5.58-2.91a19.26,19.26,0,0,0,3.62,5.52c4.41,4.4,8.06-.62,5.35-3.33-3.52-3.52-3.68-7.8-.78-10.7,3.26-3.27,8-3.85,12,.16a15.09,15.09,0,0,1,4,6L176,168.33a11.43,11.43,0,0,0-3-4.67c-3.32-3.33-6.95.56-4.11,3.4C173.37,171.63,171.77,176.75,169,179.56Z" fill="#e01714"/>
      <path d="M192.69,184.36c-1.43-1.57-3.06-3.33-4.89-5.35l3.65-3.66c12.57,11.91,15,14.33,15,14.33l-4.57,4.56s-1.34-1.4-5-5.35L181,203.8l-2.8-2.8C183.59,194.31,189.43,187.88,192.69,184.36Z" fill="#e01714"/>
    </g>
    <g>
      <path d="M449.86,125.63s-8-8.81-15.43-16.54c-6.69,7.08-8.16,8.55-8.16,8.55l-4.57-4.57s2.81-2.54,11.78-10.6c10.09,8.12,20.95,18.6,20.95,18.6Z" fill="#e01714"/>
      <path d="M423,132.69c5.45,5.45,6.27,13.51,1.83,17.95s-12.5,3.62-17.94-1.83-6.3-13.48-1.83-17.95S417.59,127.24,423,132.69Zm-3,4.5c-3.36-3.36-8-4.14-10.41-1.73s-1.63,7,1.73,10.41,8,4.08,10.38,1.7S423.36,140.52,420,137.19Z" fill="#e01714"/>
      <path d="M380.77,167.38c-3-3-4.37-7.83,1.21-13.41a18.07,18.07,0,0,1,7.18-4.64l2.9,5.58a19,19,0,0,0-5.51,3.63c-4.41,4.4.62,8.06,3.33,5.35,3.52-3.53,7.8-3.69,10.7-.79,3.26,3.27,3.85,8-.16,12a15.09,15.09,0,0,1-6,3.95L392,174.36a11.34,11.34,0,0,0,4.66-3c3.33-3.33-.55-7-3.39-4.11C388.7,171.79,383.58,170.19,380.77,167.38Z" fill="#e01714"/>
      <path d="M376,191.11c1.57-1.44,3.33-3.07,5.35-4.9l3.66,3.66c-11.91,12.56-14.33,15-14.33,15l-4.57-4.57s1.41-1.34,5.36-5l-14.92-15.89,2.81-2.81C366,182,372.45,187.84,376,191.11Z" fill="#e01714"/>
    </g>
    <g>
      <path d="M104.32,416.12s7,9.57,13.66,18c7.38-6.36,9-7.67,9-7.67l4.08,5-12.81,9.34c-9.2-9.12-18.93-20.65-18.93-20.65Z" fill="#e01714"/>
      <path d="M131.73,411.85c-4.86-6-4.85-14.08,0-18.05s12.8-2.32,17.66,3.66,4.89,14.05,0,18S136.59,417.82,131.73,411.85Zm3.45-4.18c3,3.69,7.52,4.94,10.17,2.79s2.35-6.84-.65-10.53-7.54-4.88-10.15-2.75S132.21,404,135.18,407.67Z" fill="#e01714"/>
      <path d="M177.32,381.66c2.65,3.26,3.55,8.24-2.57,13.22a18.12,18.12,0,0,1-7.62,3.88l-2.32-5.85a19,19,0,0,0,5.86-3c4.83-3.93.21-8.08-2.76-5.66-3.87,3.14-8.14,2.86-10.73-.32-2.91-3.58-3-8.32,1.39-11.9a15.2,15.2,0,0,1,6.34-3.32l2,4.9a11.41,11.41,0,0,0-5,2.54c-3.65,3-.16,7,3,4.44C169.89,376.47,174.82,378.58,177.32,381.66Z" fill="#e01714"/>
      <path d="M184.53,358.55c-1.71,1.27-3.63,2.71-5.83,4.33l-3.26-4c13.14-11.27,15.78-13.43,15.78-13.43l4.08,5s-1.53,1.19-5.83,4.39l13.21,17.34-3.08,2.5C193.49,368.63,187.7,362.16,184.53,358.55Z" fill="#e01714"/>
    </g>
  </g>
</svg>
